1674699548.656749 - node3 connected
1674699548.656743 - node2 connected
1674699548.657055 - node1 connected
1674699548.681659 node3 c44bcdc2407e221a68238d101b09ef45481815794a18ac9f6493914639db95d5
1674699548.6820416 node1 ff18a65e46b13db0e2ca863d9f89fe1760af79bdc325fb528d691baed2567828
1674699548.681946 node2 1faf84856c1d7c351c4ca09ddcb11833272e3e04bde5b430a2df60c229bf3e6a
1674699548.7070563 node1 d51e009cb303b6e67816439c571751b005e922b0794dc398550dbb6766c2475f
1674699549.0406654 node1 3fc2a15da77f472774c47f775fb1627edbc90d1b20a475cf6237bda17ca5f603
1674699549.1359441 node2 10a00eb5ee87dff42b21efd5fa574bcd3a5fb80f61b4bb933fb04a57c52d037c
1674699549.3409908 node1 6da4b57fbb9a2116e64fdfe47941525270a5d62c2113112d616780dbec5dfc1b
1674699549.4150505 node2 43663da0825ad1644b89d74ebc6552cd9c5f873a03ef1faec3401afca26e4fc8
1674699550.0335355 node2 3b06813bfac9b16b25cae31a9bbd79f0ce0cff2b9227989fede8d6950aed0e71
1674699550.2445433 node3 40d22a0cf082f8188ba7c3a49e91403c2e869a27f74895b7865a18e58d8670ec
1674699550.838926 node3 59cdc4c76c10968c61d308fc19c8ffff5053d267af024f51c8789d4e39f77906
1674699551.2559614 node3 7c1aaed8d458dd7371ef706a393394aa8b312260431efa292979aaffcf3ca268
1674699551.669744 node3 9d37ef613b9eafd300ce2ad7e3c926d6e301130d091b7550afccb964a132f21b
1674699551.8117352 node3 ffd545e7b3deccca1d00cfb0737338178fb853b4577119f9e5e3cf9608183442
1674699551.9558892 node2 ceadcd77f8c221c51527aea032b4f0ee09334bb3a6cead5137ee35a6227a1ffc
1674699551.9826984 node1 6d916cd9a63715d14e6ca180bd81955bbd1550c8066170868b5cc64a48d5a0ac
1674699552.173732 node1 89e390f153e001cc334b697abd19151a5a7ab30b5290f7d06962ce9385d505a6
1674699552.510652 node2 93fc243e157860b70e7b962e56576d4e52719fffc37084fcbc54944efbeaf068
1674699552.772824 node2 5079b6154fb53e11c3f9b5f4d5d4a2869b8330e1168f149f24eb2fa3525640d3
1674699552.9001846 node1 3a60f47543ad44278f8425baaf30e93b316b6f0e63939b6310a422aac085f653
1674699553.3374064 node3 b7f0601e60dc8661e6811b865cf47cf438f941f5981ff48ea4cc5cde94b008bc
1674699553.431786 node1 500e91840b19ccf523309216b8129174ade73788a69eb91bf72cabe30147adc6
1674699553.5287614 node3 4de54e1ddb5142c0dbd2561ee3fc55e36b32da6980d796e5ae4c600dc9863676
1674699553.649777 node2 04c9a72ce250e640c64a36bedbb5e6b00e6a277a79458b0adab574f00cfc778f
1674699553.7263618 node2 8e43adb5aa10849b7b9431d7591c2126a14a201ca68b18a63fc126153079f875
1674699554.061533 node2 19bd323d2bb31a5e1f53caef63db7ede716d522ac4e60cf97de3d5de79e651b5
1674699554.5127149 node2 c84fe834096669e61779c6cc705765254957d2f3d3ee7342cd70c8312fc3c20b
1674699554.7185483 node1 29803e6c392d0a58221d2bc7e4bdc23d9a084e2b98fa49e96939d85895e3c7a8
1674699554.7525554 node2 22c00e90774f7d5570075de0dbe61b3ebf82e7d0fc463d569691aa77ac0b3946
1674699554.8774858 node1 0f75b802768c84a1a8866bc7fe863e63f781df83c54b30046e4b754c28900c56
1674699555.1783376 node3 2091b2319742f978bd2d0bf540dfdb175ba4d78389edf251f591dbc5aa3d9607
1674699555.7299225 node1 bb728ad7ea1cd444fa01c0f9f2a742916d753d075bc4a3c048b0baaa3de4a17b
1674699555.781678 node3 dd01fa2be76a7250b0bbde00a259789605ed00696e41c3b1ffad9e4e6425a2b8
1674699555.8178675 node3 a64d8f210874eb4048d25cdacab4cafa07102102b8c101b457cfb30a4a19e77c
1674699555.8260224 node3 fe7fe67efc38d6e7fc044a556dc5cee420828a7be516de509ebef626e5136c25
1674699555.9520645 node3 6db1abec3a78e98baca25ea13bfcf5dee7e6473e14e97b99c43e4ff29dbe8835
1674699556.4409103 node3 70f5b36095414fb08a9f6353ac4c2512e4cb3bee570a04473cea4ce8e68d3875
1674699556.456058 node1 14d813e25949c6d626ed7904f0009949378a1515ecf05ebe972a051056e93f6f
1674699556.47763 node2 ab3dd6a4d2555420518c7f7fd8ddba91f072f14b7e3c2c36116b76346e3e54ed
1674699557.1684482 node2 a61dc3e4e240ceffd16e86e5799a06fc34322c65e88ef65044dfaa328c65733d
1674699557.7481759 node3 fadf0992d7aa47835c864cf28395158e2aaee5b8a2eae686a0a0f388d03b4494
1674699557.7502487 node2 ce3b4850d17e158dac0a397abb625c0d2b3d7cb848b943540b8cb57cf589276e
1674699557.8554473 node1 a6e8f5570beba905827165c713ff72dbfb435a2a8d35cd64bd4410909a374cee
1674699557.9349475 node1 4ce1ddb9b73dc076cb65cd018350d8091192ed5bf19e356b6ecca5e2a8b63bd0
1674699557.9567847 node2 fc91ba1aaf9e45fc2cd59f34103e9c3515b58d6ce6cb5d2d34151b5bad94abd8
1674699557.9986246 node2 6fc4c89d2ed9a93bf68758cc86d0dbb400609e177da44cf51fb935f344a8bbd0
1674699558.0395489 node3 0e1cceb98a37b634abf96aa7a970c879ca95a749b124619414a28ce9299fa322
1674699558.2982054 node2 f8fca9b109a8de71c384e26f6eaa5588f194cadc892f0f9ce1b96a13d6648723
1674699558.7295358 node1 c1e11e452845665310bf04e25abfa919d88dd2bd44f7a85824962a3d72380977
1674699558.991474 node2 e28d4a84ee333d66673906c898b55388201da6781551949fadde43ffcffecfd6
1674699558.997645 node3 0e13ec773e223ebcc4f3be59d035cf77f1c589cc8d541c7538b7e094843dbc96
1674699559.0695593 node2 6b475fc877c99adf3fa1611ff1dd4e92c5c4c8a25445dfb0e6f5ae2dfce4186c
1674699559.4341905 node3 784edb0839c9d5d68f116ee7473dc45ca2e916db95723213dba7e82d04e77d32
1674699559.7264745 node2 b768496428ca6bc34afccf53ba7fbddcedd2ce25a8006645cfef11875d4acb37
1674699560.0020976 node2 99d09e5c9d9f3b8d050998e9d301275c51ff8014ae964ea11f7e83f2df4e6aae
1674699560.050338 node3 fad65b514705e02e7ce0206e4dac0a80d9a4237463f24187922bd76474575e5a
1674699560.0729938 node1 07be5a1c998863111fe599798d6b4dfd23bc312486910fecb25910ebcefd8bbb
1674699560.159542 node1 7940e216e13bbc5f561d3f9ffbeb8821c6c3d3ba68d830094551ef4f0c481736
1674699560.2475035 node3 e7e96429f7e9490ce9eaa4900ce4b76cc46e10e4e483ea05fd528728decec732
1674699560.3155665 node1 825abc72859b22b88feeba56a20dd192b469375034d51da26facf9eb3547634e
1674699560.4983616 node3 8f9c8880cbc7773a585c00c7a0d52ddeb9cc86c4dfc3a08442c7f4dc24f211f3
1674699560.7836308 node1 e88d3fa79ea829a333ac4e19e44b67e305eb061b39b131f45ba5f0a6b4684f68
1674699561.1632204 node1 9c108361f9dbe9489d0170845840f6422f2fa0de47b06f454e2fd021c02519cb
1674699561.5361428 node3 1c7c421a7f0d0501c361ae0851081b72b14932dd5f3c961374c30e5144ea1e44
1674699561.726409 node2 ae31d146a5e1bc9cb8fe5882406398179df588404e95375198c074b21d6ac18b
1674699561.9366596 node2 5dee115f9dadca202579c3c3b1fac93377d6fc104f1232948e3d4a1f8f7c9477
1674699562.099105 node3 bcc642e2c01cba975906ff0cb681f2800ebeffc74fd387100694c88dfe4a9d10
1674699562.3077476 node3 94654c0ce2a1203b8cc7b0013bf2dc0d2cc51ec9be1883f86cb311e7a6dfafc3
1674699562.3908198 node2 79199c549affc109fe60e69f546499041aaeca3ab27a1d6bbc59d2ed5f3156ff
1674699562.52764 node2 37b80f6a9d79f2a92284db64b40d2cde6009feb42b0ac371e528fbe88178f820
1674699562.7132356 node3 9e064daf0524ef02ab57665397343b028a39f10f10c73797810e64b0f21b796c
1674699562.7236044 node3 a8d74be5fb286a43d085d099cfd1a21f78ecc0e0cbca177d48c9541836efcb5c
1674699562.894203 node3 af087bad4bd0960db638885f3ee3d47d32de784c90e5a77f33f56f7c42255f2c
1674699562.9209502 node3 899a4bbeeb94d1fade55c5473bdf6778e59f849e2d1588bdcb490836d88df463
1674699563.0024128 node3 f4ab01c3bffc03b7a1493c9958c34427df3df855e19a6f12db21ad2738245256
1674699563.3030457 node2 9bd77508c4baa5e4f588dd469762b6eeb3334bcf08f3ad9f966e6e394707f760
1674699563.646978 node3 020e2e1922201b3e40b28564e424a77902fb99cde10967f9213ad5e39efd8792
1674699563.7121441 node1 0db8be0d6793a7aa87984d5ef96a7c4f3807c98dd40242ba376d05ef9c890afe
1674699563.8516958 node3 f7dffbcd38b767038d07f92bee78d5de8b117a62b352ee401ea66d666398cc3e
1674699564.3671553 node1 75c656813953f60075c58bdc1448a0da414adad95dbc075607681396c486acc9
1674699564.402407 node1 66f6b26276f9547208a301c0a644efb14ebc3ce7ac63760921064e477070279b
1674699564.4658198 node1 f35a7b6390d0a3b14d7cf558ee66b01817160769929ee4923daeee33d3a18776
1674699564.5252576 node2 76c8ae7bda0a772011db4156590ba9c45b9ad8c384185143e0c791c81abc5bb9
1674699564.5967295 node1 ffac4ae0ae923cc78950e4c3762e6fc9eea19f3aec4997620f79afd24d645686
1674699564.6405065 node3 8e507aec9fc76ff3853cab0784b13c89e7235ae2b0e9cdf88f5e0bf37c23e9eb
1674699564.8769794 node2 5656febc9ca374c542b142bf890146506b2230a405e2d222bb85763c6ae17319
1674699565.2500231 node1 d07cf47e14200107d35fe28039bfebd671950af19e71ec08a7bf00c482b6f8d8
1674699565.3751895 node1 49846fe9ab780a3f138fed25a1e963ebca0d0e6362b7ad68ee657157dbb2d7d7
1674699565.4424798 node2 a27033a9da0256069404de1015dd01a3670dbf3c81f5f42742e790f4b4cec940
1674699565.557937 node3 699af48047706c837977fe1c3720078467d4581ab11a41b2825c29b4d4f4287e
1674699565.8535047 node3 6dd5a784045e6fc6a084cc20204e9218a6efabc7f7884079bd01c8a1fcd39d17
1674699565.8660219 node2 d28d567424c97b0984537bf6c541accddb80644049b89d6571ef70b142c58a6d
1674699566.419631 node1 be13c38f6eb7672cbb456c0c9e240317d83a3e3241382152caa7f117b45a9045
1674699566.4343836 node2 15e5fd270d56b09461dd853db382d8dd4031491672ed259817ac8fd37d2434fd
1674699566.7880862 node3 ca46846a31212710efc376a0ee23316f8a83bf794ad80e04c0f829ee4efa0ccf
1674699566.8044927 node1 5ebcff7d63a36e33e1a69bb006f0ac746524e1672932678d8cf1c2e8e41968e1
1674699567.0829508 node2 737da5dcf8581b5ce5f744b07aad47185cbbc569e5352d8f2855922b68e2c267
1674699567.1119735 node1 6b8d53622c752dffdb2a2df67166476a9815ffb5e57166b52b2b817d5ed59d33
1674699567.359775 node2 bbae239b857df77ddcfc08ee5bb77ed70ccc2e0e82b62da455a2022b2b2616f8
1674699567.3676136 node3 ce2407df30c9e94f070fcdc1a2a174638240ab0bda7861687b79d05e34411ac1
1674699567.484458 node3 2af3af11aff7c593edb106271a5f9ee9b39f61bb2a56cf9d445662c5c8939657
1674699567.7056677 node3 5b84ce4f497e461d66dd9929198ae4011da2a37d18b777a8c91a1df742c71a3f
1674699567.7218509 node1 f260fde5e9599199fc298af17d95cf2b25ba2a38c6f041bf900237837820bc0b
1674699567.9647195 node1 cb38314c6c0d503de437a4549f1dc2170050fe6680d6da825ed35b44d6f377da
1674699567.998094 node2 e3b53dc06d35290e0f3eb228979eae43315a42c220ce4981f9d1f16b098fc5a5
1674699568.0743966 node1 01d93b7c388c3bca55ad206653ef315aadab5cd46c7ced17d918976a9c0932c7
1674699568.302323 node3 6fb9b4a734ff7902d470c56ac84aaf2e98498e55a5287b094fe33e6ae9627f75
1674699568.3480132 node1 9231f0db7e73c0b247a7fde9c905864d537503f0b279de0589480d9969ab2881
1674699568.4969132 node1 a5918fbd8880818631deebab820cb47a82ddc2e45dd2018434683540d3876cea
1674699568.5234404 node3 bc0afe5440c0dec18ec97b9ef9c88c09291ac36e09265faea6fe843476a34d74
1674699568.5619938 node2 c5aaa3e9bd6917523f169fad4cc5000e72f51fc5fadea315ddec5dffea6a30de
1674699568.6174774 node2 958e125eba020e8054873c87bd12606f72b122b8957d912c37546747f111e6aa
1674699568.6793444 node1 0721bb8d4a63207f676a6fe0985f0743f3472c1f87b834de7a2362e9d8c011f9
1674699568.696684 node1 e0749c619201a7c57c8ab1ed407132b7f19919b0eea8871f811a39a7223bd028
1674699568.8514175 node1 996d5f2c7b9f0db87f66c309bfc0a0ee36c623f4cf17a7b7776d4a7dedb43994
1674699569.024154 node1 e2e701853f87375e3933be8fffc414e679398910bd140fea2009531b725696d6
1674699569.1700168 node2 58dd8bdf4ba20e27772b6fd0db857dbe47144704582c264b31724e177cc6f2d0
1674699569.377616 node1 ef1b3cefc4fbbc72e7044c536a26e10be2997c0678a12468a3df98a865d95261
1674699569.824404 node2 59bc9b6effc62199951955ec3c543f100643fddf7b5dbcd48a161e72fd91892f
1674699570.1934445 node2 820061fdc648296108e2f321e696c3a4c6211ac854be40a7d7ddf26dc1e56293
1674699570.312529 node3 855f9437d19a1055ddb50ff3c4800d8bbaf71aa98b72f101f867777057d5c9e7
1674699570.441174 node1 aaa3b9211fc4eb8eb9ee9808c4f25f02aa3c4ecb122f6cd9acc04e213efc285e
1674699570.4760668 node1 c6fe2151ac15cbad5fe5968ff11e21f9eff29c6684802babf8f846515de231bc
1674699570.524146 node3 8558d42a9c95cb6a0a7484e1c79c62e316a6db00968dad9ad860341e6226b2d1
1674699570.9108467 node1 392d1bd95ae8b0e108c2b5d63f612736f0ed9931f4c8ade8cb6b37770034b797
1674699570.9823756 node3 3ac41044b0fd66dddcdbcb0214f745246973237bbb4e56b04f327f30ee401dad
1674699571.0470362 node2 2e9214bd866fb9b423b55ee65b931a948f3afbb5a3b9b172bd9dc05531910406
1674699571.3360627 node3 a446349d39221d5b14300658aca918ca9eec0e881f68e0dd044b4cb03d358d27
1674699571.4132445 node1 fe1f7956c1d4e824ee86d48171284fbbdc28cf72e5f194c85c3ea3c75709bc97
1674699571.5459268 node1 0d452e54d48bc3ae3fbf91e7a4f1301d39b3d78570459994404c894e048f35b4
1674699572.0880282 node1 30cc35e19e661bb662f9d90bb988514f4798eb846a2b405e1a28434d26624bdb
1674699572.1445713 node1 2aaf5bcb443c346358bd8f20613a92eb6d1ac1ed6d70207eefed167037b24b46
1674699572.2251112 node2 3b8cea42bc40fb06c03e7653b6c65bf2d11b378e5d5a1d05c5c3a9cc66793a61
1674699572.3810441 node3 525e39cf986882a7a1d66af5f25645936fbaea34925d4a5e448a39b18af48d5d
1674699572.5738666 node3 c099c72b583ecad61415b50dece95c81094d3f4524dc166d7a94d0faf85d6ba7
1674699572.6277492 node1 c8f7beb08222313b1ac6097775069521ede002280692bd65d17a969e73a1a24c
1674699572.671894 node3 cc3f6828936ea2c1f6e8f392016bcf8deb804f33c6866b1ccfb9c56fb31bf3f7
1674699572.76816 node1 4305b365d82fc39ab65fd4270377693ead243a70f00a0be2e18f06b90a4a01fe
1674699572.8971903 node3 4f302ff8ac2e3980f93780639e809c069f7a376bbc3168e7a3005d910bcdc5dc
1674699573.0993495 node2 85010c34adf4e4d18f2d7c956cf862df2eb57179cbe0efd22f7f5d4a8167d005
1674699573.3471322 node2 0ddafcfc04b8dc16c41671a23fe5fba31e68b7c927dd85952183480e54e7885c
1674699573.5268729 node1 4420961957966246eb9f1ea308f938ac7bb04aa0ca8160946cc6e8a7e881b8c3
1674699573.6495733 node3 3f7e863dbe701ebe8e26b992c7f56238022f84a7049f1c3606478af9a6937395
1674699573.9527888 node2 5310a34dc6841774b478315fe186b7bf8ab79cd37530fcc21fa6f14202728611
1674699574.0273938 node3 7278a93a2964b162ce62a06ff73164f5580e98009a54b024cac44fc5f18e9201
1674699574.1738172 node2 0951b2063991fe54f77b383be800c7bd80c1055eb25e6f258a73aad13fff510b
1674699574.45013 node2 d9691661336252f88ce48356a5bb051ccdee7f8a9d13f2f1d03cffb5596d1b3b
1674699574.4802294 node1 fb836f9fea65c599192ea2dc8d7035380e735483f1b2f706e8cdaaa5ed4b5384
1674699574.7714598 node2 83a7aa581e6f2f023c9872aef2c52367dccc050376d745c137087d337acfa444
1674699575.0726476 node3 3fc6c63cdebd074b8a3f0ff56e4b5835232e17e73d0d7a602f3087ec7149615f
1674699575.6937637 node3 0794ac1c70ded5873e81940eb3c64870b7800787ff8384ee339e210d42b354e5
1674699575.8960705 node1 fa6da5ecaaeec306f905a2c1f5df83b7bae127fa8a6aed096e65d9d34bd2842f
1674699575.9224489 node3 030bc46cd6c062cafc31cd633ef4c9111107e6857342f8d6e9cf2fd5ce5fd809
1674699576.2683308 node1 49632b45c9ab6f09da4dd2463fee59326b0b3fef7dc757fd3822c78af4a8ab08
1674699576.4290395 node2 41f586a768e8e48266db9ca30e224c7a40a6e7007b0b20211034c6d0f18a99f5
1674699576.5933573 node3 3e64948e1444c4d0bb8bba39daed0e71689ae38cf2409a6af9fc3c70132fbe2b
1674699576.6337886 node1 4a70005fa6877c4423551279dc21c64016a8e91feeff9b1dab31c066920e6d30
1674699576.6388106 node1 8e1e262ae6732e33176a197bc930e2eb5cdae23b831652eced669e76fe4bd721
1674699577.1167517 node3 86953d7cbf39151c3648eec839c0ad0e2e75b88e28faaf2e3e95a03646e17f7d
1674699577.38746 node3 113adcff4fac1e1bd26313752dd0a1a136ee774795017b2be8271ea9ee27bbc3
1674699577.5481157 node2 b3e8b2bd62a9ea6b0276d98f7dbea7208af5df046ac36c360e0a8fe3cf5bc373
1674699577.9797127 node1 b6958f621f5dca9f97d23d75947cc75657cfc7e09fdfa07e7e5f0b5bddb36cc6
1674699578.0179195 node1 c239f5e5fe3917d97d0dbe08d2187c58e7016a9c0ebc4680df0be317ebb23459
1674699578.2559404 node3 8b07ff454b048758117c9faab4dbd9665c21affc51f7ffcf5227ecb839240791
1674699578.6548014 node3 64f0929ad4952bac54e80eb4074420e1538d21cd155a53a6e1c2a55f7c8dff65
1674699578.6890824 node1 910e078b9a521b4729970007c0db15f3839de1b53b68a38fe24f8dc5b1c9218d
1674699578.897711 node1 373c2bafa48002421f3c64a5f00a5d78c0c0cc310aeeebdf819d20a8cb755ed9
1674699579.0512297 node1 8a5e92fbea5c438affd5ee1852143b585a8be80440507c6422b61eb6b7564e1b
1674699579.1512551 node1 23fd47fba1d2ed8be45e5b024e9bea0a042927330584d343b328c99ac4890b9a
1674699579.9059608 node2 50f45cdaedc9d9cd8e2218744d8450baa199a94297c2c5ff2aaf58ab83bdaf3e
1674699580.3192148 node1 e2f61294046f85767bacca0c6621850162d3fad00688f99a510bdc63d6e77950
1674699580.4090102 node1 2cfff2e4725e5be4c5e037d64be96f2c6a276461b91607234dcb72759c8e2e8d
1674699580.4854484 node3 8841a3e71123d150a32af205c4e6f2d11ac7566da0b6e37386184b54e8de0ac7
1674699580.8169084 node2 d0815eba15de77a15496ca2d58e6a12d109ea819650897eb6c6ffd48768fd672
1674699580.9510033 node1 03ae4787be04ea173a060727168b0705b335e7260c5d44837d922acacaffd1db
1674699581.3757524 node1 5f3163038576b3444df89dced2214fec535a2a265b322c1f2fa9336947d79042
1674699581.6759765 node2 9aef10fd96196603c2da8de467cba4516dd81346a49febac1840abaeaa41d13c
1674699581.7963946 node1 886884eeda5fa20833947bdd9367f3ccaebf3d98dad3d4070b54ed860adf72bd
1674699581.91768 node3 ed695227a13c0a812d4035184d3d706d4617ae8726b545c125fa042cc06d1fe7
1674699581.9434812 node2 419ffc8189687d4bbbb3022affe7691b3948406e80c652798ffdb7d8f0e9feb4
1674699582.1264253 node3 3a691386f23c6ae765557a617cf4792790bf4c03167c2f79878ced0f65d36f22
1674699582.2556033 node2 c4510ed84a751ec24906444040f2804693806b4b49acfa59aa7b54e0ed74aa9a
1674699582.2752306 node2 fc4435028ac9a3ca55275b0f2d817727ef8e396fcfd4810a9dcd3c9b9ba4ab37
1674699582.5619535 node2 631ff53ec98e436c337e64f556a0507b38bf07122bc1da9f150caf65a4bc0fa2
1674699582.6576371 node3 f89abc40048b76f6bee8e768a9e07e23d0b6b02101c11cff6913677f40938d8f
1674699582.6887813 node3 2cf88fc3ce70824851c6ac153f187b3ced0cc7942803538745b1af74e42e2b6e
1674699582.7653682 node3 6941a1f705b560d2b812022e1626eab275313bab88bcbcf80aa88366d60c5866
1674699582.9495237 node3 5f0cbea37fd0be43b5d57eff812e7049f95edbbdbc1c0fa99c58b69027725702
1674699582.9585972 node2 298db7e19f5fbf211725c62ce352386317a5faa238258abdb3005ea9047a660e
1674699583.115616 node1 a929551683c4b1888efa756fd34f490701151daaccbaa3ec19982233b419cd9d
1674699584.07977 node2 d72cb0350e65c88ac6747e31d4695be0a34e781da2433415f38e6a142cbcea68
1674699584.079892 node1 cf8dea32ca388ed6d5e0d4561e7783afb60bb12d7619a78230862d00239c37a4
1674699584.4157474 node2 7e61e78602a64895757cfa0182d242fa76594850450bed1742c1d85ff7405537
1674699584.473986 node1 339b7abfb67c64067c33d19716e1cdba71f6c357e5b37794be5d2ec7aca1ad63
1674699585.1555984 node3 b431f317c09f95585ece1375dabd9f7f8cdd40f522f40356800d009280a8738b
1674699585.2294233 node1 64d2c77726f86f57d81ad5e31241f08a19006ba5fd7dc59d4c5891f3e6c2e417
1674699585.2812393 node3 2ebcc02eaf9c06f5a3db6437eb92b6a83c6f09c5df0e224d892e69df4321e761
1674699585.4828641 node2 86358c83e3648d4d2773608677b865aa40113e3730e73dc9b6f56e73d9a25679
1674699585.5650978 node3 46f71909a2f60eff6eebacceb9482e6a58d63c89e1418de95ac003ff02ac5d8d
1674699585.6848655 node2 65bf8b62e0090637450fcee5c03a52e291619865e146f3567b4075477abc830d
1674699585.7744007 node3 ffeb2afe0f3a48ece7aa43403234f30ea89cc7ddaaea3af20bc1258151269a1b
1674699585.8441396 node1 6008cb154147dc8a79f5839e50fa042cf80185bd0e1e6f7eec9706dc48b2d133
1674699585.8960989 node2 058004e6bf1d7a5bafa58384ebd651dcafc39514f433055e571e6c7b0920d297
1674699585.9142916 node2 bbe4c79815fcf164027d852584a4d2112cf80bb3285648f47ef1e2e395c56724
1674699586.2630074 node2 3b1661fb3f0d28974f94625299806ee5492ee2b0954e65164134bdc6b0ee6d81
1674699586.4766061 node3 6e5537a32446b90e31a9c1bb2ec46413e3e7be82ae28b59e3e2731169da4bf46
1674699586.78855 node1 b6395a61b8256189609335bc33e85b5a8054b141518a44cd21b60c6e8f7e6984
1674699586.911176 node1 35e23a3c5ec0137830dcd65128cef864213313584d09ed3b357d19ec89b79baa
1674699587.0003555 node2 dc04ebb2044c210c554e7df85a64b1a24f3d30ef42d59cd9a14870a4e16fcc85
1674699587.108444 node1 0efedd063f59b077fce588840245a08bef5a07ba0485fea2bd383408d5c1c692
1674699587.2572236 node2 7107e20ec580946028b27347aad180e9ae734a4bc8af0b1620b163a4a9076f30
1674699587.5840888 node1 c17920283008b71f2ac00454992855b4972ac5ac3dc0dc86b67c3117cfb4b6c7
1674699587.7112627 node1 467b115e9b97a4a40cf16d25e4a200400b1bef3c9a8b3236a4b2cb09b058f05c
1674699587.7328112 node1 47daf304f2526e3a7567f6c431aaa7a8512a5e0d3ac8b50d7a8b7d81b402c9d5
1674699587.7985961 node1 06d7ce537bc34a036fc6776143be7600c20e68665de71c4f9c48d9b896a461a3
1674699587.9087782 node1 22fe2057ac499fc69ead8cd66548a2ce690222e0e405304d3971163f09ee421c
1674699588.2972317 node1 b19eb5992427b1274c4c2f3c701ae3b2c95bf00d029fd546501d312141cff738
1674699588.323829 node1 ea196917e131785034f8515f28ddb13738eb52a21d23ffa1ee26dc46ec5a7835
1674699588.4017084 node3 fbbbb1e256456e0997c26737f967118c03ba60e89c3c72fb6e8334a064966304
1674699588.4226983 node2 7e4f401f3656cf3d14bcc815ece30306a0858ca6accae307d2d3bf2d6e230d37
1674699588.5779858 node2 4b19e36b9c7efc396d4c6c6d9e3334560f0b3a70d6031dcf0c30b2105995bcce
1674699588.6695118 node3 56cc0f957c571316ddfa80288e90f909c8abee8d6c2751cbdb8d94fe12997573
1674699588.688235 node3 bb48decd6db1cc92902673513519f574937a4088e6f703bf84ea8183290db41a
1674699588.723318 node2 fe350903f682456ea88c99238ee48be256556d330167c0a15e91acb163479318
1674699588.7558641 node1 327f4bf0e3ee1042a6afb3d7acea4100a90cc7ce2e8eb31106f250a1f547f07a
1674699588.8406467 node2 4462b1a421ad7b83b6d5388595db7923be4cb538de775a33b4725167fbc8f74a
1674699588.8574946 node3 cce3f6bfa67cf09fcafb7dbad7e8c733017ae8736d41cb23ab618ceade16e29c
1674699588.914436 node1 021ffd1a6d700e77df67844004e69e8b92e67c900ce8f6f6fbf43e2f9d397e87
1674699589.051045 node2 338cd71b4c213f73c4281d843ab667d2458bc3042bab6f712bf8fa573cd5d688
1674699589.546014 node2 8af58396c4965a56c7bde504534098811e222bcb8acf478178d925924a8c688b
1674699589.700619 node3 461c1bf209db4bf4b08545e386c86f70f071a6f0d5b154f5661ced0d9624501d
1674699590.0455563 node3 e4b988550db2e6daa1141461a386e6c6b8bb5ac908088212ea04e8a0364b033e
1674699590.1619265 node3 0fef558df60c786497179662ec2d6c47be8fc548d24bf72983ea0aec826e975e
1674699590.244225 node2 004858941354e2b8de188fdb7018c8583734e1267591e96e6cf8ed11b1c905b0
1674699590.2919238 node2 b5acb089925486abc94d2a5936a9850d84d2bc77f3e0012c4cadf985b7c1890b
1674699590.4203181 node3 c5c9bd4c7ee143607ccc537acd51c537f8d96aee1544592801ac6b37c04c825f
1674699590.4700868 node3 020c9cdda96bd234f38dccdde0ca4670a1a5fb30d5828109e203d5c48957951d
1674699590.6440427 node2 c993e6ca3c966b329dbeeff1c37a21226ceaf042b3494a8be69de62d46038df3
1674699590.6640186 node3 185df5c2963a69dade05b0f2c8a055d7902415f86675b8fca958e8632c0b5ea0
1674699590.7988718 node1 f1b211ec5072322184b9517ec4044621f248a9ca6f301585bd18d629c4c89ab8
1674699590.8741918 node1 59e7e1d5296ec1f15cb53918b4323418dda797c223db7d636683670c14a95a8d
1674699590.8948283 node3 b532a4b327fe2aa73bfaef68e89fc8f5d0e56f83e18888aa24022db8575e8997
1674699591.1276906 node2 1dbc54e48d48abd6f77e40a487797298f04b45a14b59cdb0d27dae8449aeb7ae
1674699591.1844873 node3 eaf7165fc2ea333ef2bb0322b9338831cf9d06e6a0bdaa17adfde24e0e33a37b
1674699591.2857213 node3 29917c8dad66f92bebc05d3975d136887d12963faec78286b828b09a6da8de9d
1674699591.292226 node1 f5bf8ff841c269007dd8b6b1a086df58f7ccd31e2ffb6c5484af4e01c902d58d
1674699591.5956218 node3 04b3c111a2ef5bc48fde49044460c9c7d65a56a931650b012f408d7857e1519b
1674699591.6349328 node2 5e68b79b870c94bb8741f4c5fd7fbf7cf923cee57b27e9ba50d652a73c657e50
1674699591.8838866 node3 cdb566152784117c22a86c059cc7566dfb06055adb6150326b15cfe882fd2c34
1674699591.9055552 node1 714a7b19c6042d6e3882324119e081e3c0e2f86bea0b25feebe2a37233335d2a
1674699592.1901364 node3 ad6528f47b8644de7d78837d39bc7eeca754cbc692c80b7d04b3bcb4bb7bc326
1674699592.2944095 node1 5b6f5d35cb183c6cd27eac06e319eb50aec86529873dfa4c36eb55c040e73f23
1674699592.7077358 node3 00508d9649a7370738772bfc2c953fa9de268c35ba4a7bfbc5ffa66b41586e39
1674699593.1747375 node3 9a0474b4c6a594f8c26252a516052a779b9db0eced56f95ba03c0618f5f3874f
1674699593.3368502 node1 77e629169517793929415a48d03391dcce3c83b52a86851abd70c60e72e5c049
1674699593.4199283 node3 fe4b434a09f87973b203a9f87b7171334668443e141315f645c9fb0504a68c8f
1674699594.2074947 node2 1a735bffdd264e70652c58c5fcb3cda884377e8d8d8fd28929553551fd223669
1674699594.3830585 node2 475383feec8fd3b739236a9b9f1c158667c3ec310a559861ffde618c0ca3e5db
1674699594.6958127 node1 d6552be495eded252827b79f79e2ff3bcb00009b31010de17045a2b5debcb10d
1674699594.8430445 node1 2f75c80fc3f1bbb9cfc65d99973437f0d21b47f405432f7711dcd77ffe6d76a3
1674699595.2823966 node1 17d34ac7f6b65463b35d44c20804b34f7a04cc3859afc5294ee348880ad5f6b6
1674699595.4434445 node1 180690ff5d66aa675f163faf6133b786f2b0008078955d5ce6d6e9c41c03d2e2
1674699596.6181812 node1 83394f5b891e8ff4525e013e7b6accb174c28e3146008b1e74f9848eba2ff31c
1674699596.8397856 node2 be81191390be6af3830be2dd70cc9b72c4ee071f2270f2f9746beed9b257cfc4
1674699596.8615062 node1 6f64f1cb60bfd17b4fbf17831e9ae7053412c4308f995b264429db757141bd2f
1674699598.195286 node3 139d26228b25e944d000dd24dcafe9237fa92d5f50c9e01337b3212369936b0d
1674699599.0522134 node2 e8e863d7a3f7ec0aff25583a7cbf4ef3f0b7ab4faf0d64eb0fd1c6af9a823d5f
1674699599.2222733 node3 59298aa751a9f7c127450f6879a863e8a682c73924fb2b8cb1a6ca5efe02f713
1674699599.3717468 node2 b73a2231edd2640a15b282a7d2dea97b878139082d84ea44ae6036e035baf0f7
1674699600.0326602 node2 6a5eb80ab91b5fa5ec472df97f8f7f51094de14769e35a0f54f594c60c3ddee6
1674699600.1782649 node3 ec07a58babd3d4f0be466c38fac1eb95dbf0cebe3b8a66cc55397d2b2c3ccab4
1674699600.2368903 node1 8c1964ae1d62fc00308ec4e7f04e24fa6c985392cf5183eb69d46e46dfb425c9
1674699600.526143 node2 326cb8314ceee278e14da0edea185be8b4de76e47c0af8503bb35d61d66ec20a
1674699600.567567 node3 2723142d09eb84a94424e7b8c53aa329aa37f4de3293badaf6f89b2c637d018c
1674699600.8881898 node3 bdf18a347e985aa5fc0d5ee0240c073b3d8fb1c4efdda30cb861bf915ed1f508
1674699600.915595 node1 503e140916ad4339ee04805d554c198a5ae8927b23a33e5c2f21eff891b7b71b
1674699600.9664426 node2 859e578ffdcfb7b291aba8e55554817370097e01cc5b5862e1ac689fd1ff3abc
1674699601.154464 node1 12e319fc28034e0ad733d8e3d71ca8fc405eb79b1092ecc409a07a1189474ee9
1674699601.405736 node3 c3be778a211435420ee07f0f6ae553bf396909ada1ec380fa463322156c3bb3c
1674699601.410181 node1 17e2c4dc28675004e22121ec851fb2c42f841605871b2c246cde8bd2ddde671c
1674699601.4231062 node1 ccd2a2df35c206bae2a4ff42829062c4b1c49b428c2c752eda38d1139943a07c
1674699601.4997313 node1 90c86c5fcc53656e8c4e421b4a6cc3efd8706c097db7f54d9861dec0d12c2a8b
1674699601.8418312 node2 38a3dee4781ba09b16091ad12db42eb9f5d19fc1bc440ea9a585e05f777010f7
1674699602.1841207 node1 dbced375adcd3d92d43975f297b05263355867c11a9d05a379b2768fb7b53b62
1674699602.259947 node2 62ddaba73b8e6dd5c881d7548a53fc7c388b65584cf565b7f7c97042f0a82798
1674699602.4641929 node2 bd1cc80aeeca8bfc8acee61e23cbe23661d759cffad6965c87833a01cfbbcdaa
1674699602.8208604 node3 d2ff32eff4b47fce2306c41a9f81a82efce7ec663f14e49fcddde34b93d81538
1674699602.8349502 node1 010174e123606c9fc74a1ad760eef7f361c518c0175c56ff7d7ab7c8452d5a8e
1674699602.944134 node2 7d73bec3107bc74c48abd799f8e11073ca19b203e8bf7ab2fb9de54a83651ebc
1674699603.0522957 node1 da0257a457450c2d3a791e84d43ebae43f1a7b64da54006202534c552d496f89
1674699603.7495754 node3 3d7bd62bde989f128e2c64515b0ca7f616679c05fce7f6fe5031452e65ef0ca1
1674699603.9158242 node3 50a5704a4992d59717ed0c183ac2209ec570aacc783552c5e4495c2528b3e59c
1674699603.9297242 node1 84fc22d518ff99e69bb912ec6e50c33d570142ffbc65c12e7d6a0e800ec31e1a
1674699603.9321363 node1 17ed0c7a3ea64abca16b6d2f1c40d3634be349fdc32f15cea4c27eb82fe7c17d
1674699603.9653606 node1 5b65c53fd8ad53bfd62a56e3381393d6c1d52a7bcdcbef5e840069d15a86b17f
1674699604.0715141 node3 baaf2c2cdad78f017398712a47a8460fff9629a3bfb2136dd6640391bd19c32a
1674699604.45688 node2 67d6c6e549aa2e28147bcf326526b0e1642e39fd6e6a668e4dade21b5a9866cd
1674699604.5878527 node3 ddb0d01b5e82eed931bf51c5d17c509e05b201389e03698991d2e960a3577c20
1674699604.633948 node2 dc7634972cb48aa30cfd4c6c765faae4879490934841aa36dd0587e832576c12
1674699604.9243696 node1 5d75a2915f9fbe41d0abb60f7504200c375aa956182b3c87f82acebddf297b34
1674699604.9277596 node1 d7ff680270f229bcb491bacbdbdf10496e67e93de43c1d5c1567d8ba2b0f378c
1674699605.0390174 node1 82d50559de84bc1f3eb87d8b9d9181ce5143fefb4129a703004c6dbfa9d99000
1674699605.312695 node2 402da624874a9c8f46c8da0be330afdb4c58bcae16490ec80422c2b27bfa6339
1674699605.322751 node3 425fccf8389023171ee5abea8a2e74f8bcbdc4c643b2dbff5536b2e357119ed8
1674699605.4285347 node3 97b4e60f0c725bac8cd408be27d717f31b094c25a3f39feec6b67ffd67adcbe3
1674699606.004797 node2 bff89965c6f8eec26285606f7ed97fe77fd5a1ec9d71080dccb731232b106a8c
1674699606.005572 node1 a8088a053e4b3316763d86b54f8557d2d2d4a57bdbba5cfee9a78d33f0cc39c9
1674699606.544893 node2 f2d49626c10858d4f12aab80528fb7d09889bc884398e30a32318456b7920428
1674699606.5656312 node1 0c199daa479f502c18ff8d8b1e0f899b5cae94768fe5667f258e69abe63f81a2
1674699606.673433 node3 54791407ffb2ae1beb61f120b1987fa77e6568f0afaf59e7c0bf3141149a68a4
1674699606.7659018 node3 b7b0fd23901ac381434d9048c65be3daa6192b0ec7ff7e491075dbaf1ae993bc
1674699606.7998445 node3 7b52a6666ba30899679cf2fd124e7c653fead23c641dfb9fef43cad455de9b87
1674699606.842412 node3 cdaa097d2422c3925845e80234f6b28ff1814344983afec718b8ea65c084ee9c
1674699606.9828775 node1 bd3d491973856203a9a0f9b2bb8a0b9210094c37432021487323d55ec4d4bcf4
1674699607.0179849 node1 156ae5e955e3680b6ed31af5f6db8bac51beb9d6a412f160226d58336fb4cdb4
1674699607.0882425 node2 c9d70b7896393927461d2b72fc082bc9b2560513735d6e9560a1b1eb6c22b253
1674699607.0882154 node1 3088e679a06a8972e2bccf9ee19d2e4f03e47efd27ae9821c1a1ea1344b23ab5
1674699607.1878493 node1 911a92337de526490227fec9c107b7c5302ed935f804c4c8ffcccc950d7f99ef
1674699607.277525 node1 c1ffa1dd510c992b06801078b8a8399b32717c474ad08c0289ce96b3b969337f
1674699607.282427 node1 bd94bcb6e4ce496638a4bc633fb4d76dac6eb5412e1060db63f1e7f60f9f6306
1674699607.3882186 node3 a5d8230d82e09037e63d7265ca31477dd183e4035b939869df58675cb4984a5a
1674699607.638468 node1 6cc42fe683af985b9c38dc5cbb157692eab7c872e7ca69c49acd9d4ea3900404
1674699607.6832588 node2 36e1059a77025e796e1024d0e6acdb260eb844e42ed64b2f91ab2198cda72141
1674699607.8528752 node3 7ad81afcacede337c8ab7bd388cb585735f95e540262cc34ed7f17e1ea01e4b0
1674699608.5261695 node3 6688975f788bfdd8ace928cf8a5e77a7c0467f46bc1422cc5c114e6fe3a89b1c
1674699608.5695612 node3 82a80b8f42fa2dfb687150136bda68e326816f58679586b65654944e5dc6890b
1674699608.8126414 node3 0d3f7b95038bd54b055844065367049e8fb3f2cc0bf2ce9adb4da6bc710e55da
1674699609.0218542 node3 53e45883806ef792ae46f92a6fb18f5dd6a55607da1afc53a0606282c714dfb6
1674699609.1084595 node1 31da60b7793aee7e6af6d7a5edb32714052280b69a0068f302a09755f4be3795
1674699609.2021317 node2 7a92ef57c55841fae2dccd830c0cad60dba2f217e7e81da62bed848e655e02e4
1674699609.4449883 node2 d63361d077222c6b849be779cdbf225bbeed48562cf0a32cb0a5070bc42c5ba5
1674699609.4641976 node3 01acbc4b2746acd8e5c31041c66353c6b6faf62db87742b485d23490821d9b0e
1674699609.4730825 node3 9c20d41bd2fbcb93ea88c4f2c423a79a70b026920ff10d253bc07cfb4382beef
1674699609.6087217 node3 a537472ad6da8eb1c8aa0bab863804c11bfdbd6e69bc2dfe615df687523507b4
1674699609.7590754 node1 3b68b6d50ae4b4a7243f9cb1f872715c7c511011e6d8b775026a22a5c2f531c8
1674699609.7602124 node1 497f93191d229b7d80d259c4485a6bcc32f33aa21d3eb7048a6e7a665ee1ec4a
1674699609.7856274 node1 f4506a84eba3b6fd11427d469185eb5e9745011de73821817022985f1228e834
1674699609.7923107 node3 2521569a29806421401596ff3cd9e8a1fee85e424f6ea7e08bbd878f3e2dd0bb
1674699609.9714363 node2 c62ac4ef8a79a9cc1754f4e94a5efa089c0a0ac2f3a73b864fb8219855d7e701
1674699609.97312 node2 402c03af56fe4cab2a8e9c990e0f27ec85d8b669a7736435c2be02859a56962b
1674699610.181529 node1 30126e01021f108a65f0ecafdfe02ae0fb5a061485f4f724fb5146cdd2299264
1674699610.3591044 node2 69f6a1954e596a2e33f03c3ecba46e51f4917a15158ad0d6b14069cb020ab3ab
1674699610.623939 node3 4ed0983dca8940daa9cccefc22e67fc42d8f99655bc62a2e3e4669b2e10377d3
1674699610.7134008 node1 c6b570248a6a08a69aac486a27735c0c8f88460d9af8e72df25e942bbdae0ea9
1674699611.0891438 node1 16a67f673e7b12d9a5bd821dfa196401c1e7170777049b01237f4ca018add420
1674699611.436445 node2 dbaa95c2cd798ba56efcdd346dd24947524803462b00f92d3a22eb128ce5e251
1674699611.8538697 node3 3db97ab8197a33bb545d03e2406f782c12d3f011c3b707a44621f33497b5013b
1674699612.1601079 node2 36798ff029c23e98e549c59522c96f49ded66169a38e374b26a43f2184447ecc
1674699612.2599797 node3 951192ae57d2052ed154797fedef0465981e628cc395d995e9305279fc60be69
1674699612.3814125 node2 a8858259b04a826dbf48c8eb2ce13fe261e47ba89fedd59d63e70f8ef24b7c89
1674699612.4186902 node1 7a56fd8f812bcb8d5b6596f7d4060f9317862695eee6a7bdec062f60208dd27f
1674699612.4357357 node3 5f9966630eb99bc2336314dfd9c831079f3293eb76565e42db27aacf694e760b
1674699612.55936 node2 2cfba71b1a057e03f39fbbc02050c75b5892e0a49b66928c0833676a9512ea7c
1674699613.0048842 node2 57672390351d128d91157f93403db4b01baec795ad9dd406df94a114d66792f7
1674699613.257609 node3 d20b1aa1a47b25ab74abd56c7b6a465a4b01f41eda69bcd649746158a1b56f22
1674699613.3431003 node3 11e257e39896fdff5644e381c71b449569608350dc2f9edfdab45a36c4ce89a5
1674699613.6060934 node1 f842c054f761394eabb3e0674bfd2203342ae4fc3552127fefe95421ea3f235c
1674699613.614979 node2 05ffa9481c56d0e472dcc618040587d2ccc19ee89020462aa16456e2c24a0290
1674699613.9151804 node3 26988eb7b49c9054011cde49475e290834a672023e59040eb7e580599e339cd4
1674699614.1265464 node1 489a8cd69b173f1a1755423028d86c20e274c31e81e945f92fcc4d50cdfc28fd
1674699614.4640565 node2 2ebfadc1d356aa3eaffaa55a40b23cb0458a9a7aaddae9e746734234dd3cf05f
1674699614.4787252 node2 2788368640cb8b1792ff25299a4ae18f96f8939e229d9884d6a42aff5abde422
1674699614.9750352 node2 17127da0a12db2a66412e86747db53fce498613d71976cb8e7dcd932d10189d3
1674699615.176961 node1 5a60bfc93f17690ced8d1eb5784cc078550275e9f820b9c5ea1bfac181eddd49
1674699615.1965508 node2 e443381e141ccf50486de73580626bc157a9ee43cc66f0c65b0ee349c5b9a468
1674699615.2674913 node3 ba84b70ad4d317719bfba88cc1ae251ac13c0b01e8cc11bb9780d871f923764c
1674699615.4072187 node1 2e047221ceba2c341030c314ad738bfb70f588f93308cef60bcc78f702d5d18e
1674699615.7468252 node1 37bc5e090580ab81bc9b63abb55d41fb3562dddc5b4ede6b377478d1833a4df6
1674699616.0079603 node3 48ca8a3c85d23d0d9751073d4aa3163c7a3b844a729e7c05c30de5ecc723ba0d
1674699616.066412 node1 374476dabc26208a5ef06ea2986f3cb6494b39dbf634cacbe4640af3021c0bf9
1674699616.3175628 node1 88698dd7d4eebae531d04994082472e2f111ec5126c44f229e11b912c14b3e4d
1674699616.3853767 node3 12ee3bcb28e35fb399b56677b964764693f11a4332a08deb17670e1aeb22d9ec
1674699616.6028485 node3 980ea3e56234a310c2b43c3cd155add8a0efaea7280d0a9009c0c8ce44e5b362
1674699616.636329 node3 2cd4687483ed1a8bdea7eac207d912c9f908716b260e1f7864889fc26320a9b9
1674699616.8502483 node2 02d3a200cd0f00ba8e04332a9e8e6774ead807ed3d6549fa074091319c7d7dbe
1674699617.1727421 node1 21a264a2b9eabc29200059f683bf05d9288cde52d23bea072f4bf824041c7e7b
1674699617.4394205 node1 12cee243514d3aa9ca3335cedb7a5b74b37d4a31488b9b942a76cc8fd2aeae5a
1674699617.5980046 node2 42ff283cb3aa24fb773c87386ae72367f111a948159a60ba9ac6669bf118a7fe
1674699617.7756395 node1 dc224c05e88a56ede29c2d4801d67071ea2b2bc527ac357772e4f0fd13296a35
1674699617.8452072 node1 a449e9aad1bdc3704cc841f060e89abe10050e85c93482e8357aae8e4f4b36e4
1674699617.894258 node3 248cb326b88d60701f24ebe5c457db17e0e03c5aa00ffc3092eba70eec915e7e
1674699617.8969316 node2 1205e478511a0e60f5c99d1fb2457e546521f532a478d7a405f3a8a4760d7741
1674699618.141061 node1 00ae8389955fe9cc2af7e077eaa92a1f1d94626ee558cb28b6ebaa2843dbd74c
1674699618.1505218 node2 324b35059d8601ea55aca9bd717998779e96dfd78d68472ef0e7e41ce6d194bb
1674699618.2582545 node3 37ad7c45b0e8369a7b78aa4b23610986520067842174159dbf55e61cd460b0cd
1674699618.2775204 node3 3895d6fec8707d3778732093878dd2b335bc7e98a034a17e7c74f67805d23651
1674699618.528508 node2 30a9a904c2bfce4a3c79c45848507c5bc53b56a4dd4ab6b40c44218887ef6f97
1674699618.8960254 node3 6b4555dac7ee0df0296bd597b652d47bca48f1c5d4df387260b24d8861b68661
1674699619.0533743 node1 351434be1e20d59d57686bc1cf4bf7774c1b3f59ef416dee3a9e91291c829901
1674699619.3471527 node3 3bfcd8558c172d634bc28bb51eb2aea637cdcbf167d863bc8ab41914d961ac7b
1674699619.504726 node3 f3aa039b3bafacde668ef24cea0e6f299871a32292fc4c4502576c99b74dce06
1674699619.60929 node2 cf552da012ccfbd7a8846610bcd4a903922f672eb3316bdc59421866374de0ae
1674699619.6273482 node2 763e5a6b69670c0a9c4acf74dbb4a6607ae7b148c3a68ea4c1ea9e37023b7bf6
1674699620.2115262 node2 f557fd578d323bc63aa571a70a1d657d42abbfc653ba19da72457762e728a59e
1674699620.4614007 node2 aec6be9d3622deca6ff03e2feffdd1576f1ba69a7aa737f22db1c5182e9f09d5
1674699620.4945526 node1 73bf2e43c8deb0480b167c92e2562b025611ca988524c6a5b15766b4a5432531
1674699620.5177245 node2 e11aabef8bfa7a88592a52d626566b8ea0a1be700f15d32c05b05fccbfe40bb0
1674699620.5288804 node2 0828bfc8e6657084bb16920948427a94a689695238c541f1237124b455610393
1674699620.5803003 node1 08d2719da2800fb3ae8a9e9049995c93303f4e0ba8f1705ba148f4584a25ac08
1674699620.963168 node2 56cb249e042cd1a9cf1c8df2a4064385f6d669090ef3af5f1e7c9748ff7bd497
1674699621.0215518 node2 69f9b2bba467f8d8e529f0ad69a62e4df5f88d6fd6c7720a6a4d4ff73f5a2ae1
1674699621.4472606 node3 a28d06d754c2c7f75927579af619df4e5b8ca2152364f917ee978540a5aedc30
1674699621.7074199 node2 767f9105049989881aa9a853ad4f5c5790d4d8451042ea9b8c535cf999bb7fbe
1674699621.7415366 node3 6b99a82afc59391bc8098a0375a26d191e6c6ce39f13976eb3f7dd9ba29abce5
1674699621.993177 node2 91eba4ef15f5c399bc9b43cd6afd28db3860efff82e94fc89ed555d1066d133c
1674699622.0908906 node3 49a824a85103d0c990405c958a2ec1fbbe3c45b7b7a040c460e791a2b786f763
1674699622.357358 node3 815a6f1c741ab58f101d2f17feff3409bff809f57c53ca57f6d11c7c22aa6a2b
1674699622.3590457 node1 b98f2fcbaaa9c6b04f859f4bd3124c05e02a66f8c535bd274058492459d6d557
1674699622.4935606 node2 4ff75905d65284ed5575649e2801219355646d8f5be50342c1314a4b0cd18715
1674699622.7069666 node2 56fab9d2e76be72135a06d67e8f8012a9cd27ebf588a4be7e0158fd87f1c930b
1674699622.8178551 node1 dfb80fa0a1ed3ba065a29a0b45d941d9bd5bcb5aa0d0b23d5c896acb16c2c037
1674699623.3047764 node1 2b32a93b4f3f99ed1b443f5eac4dd4cd7e0b88eb23a6b9c8b2b3926cce8b7404
1674699623.5507507 node2 a85c416fe4efa18cf33b8b6fd8dd167a7854f9207a984258caa815058b454155
1674699623.6797214 node3 f12c2be3e0d3f6bfec60f3ac3c01c0c38471550ffd4105c435351e96b723b32e
1674699623.7143006 node1 a90840d3237538a01c18bea38948d8e472d0b5fe444e49addcff929f1ff6e5e5
1674699623.8989108 node1 63db81f854657a2c6f7346e2bee8f2d67aeca2b29ea18b1ea5e559bcb291fc2f
1674699624.087958 node1 cc4e9cc10be574493ca7e6022c7223233cb5320fcd60fecc5bffdc265a809a68
1674699624.5284834 node1 b4e1b044b525d0d8a2bf749fd4ff4b5487671b09c397db0a25402402f9841a07
1674699624.8103843 node2 4d7a00767a6e38b412770ec9f6867de6f6a067c2aee78dbf3ad38505e5c58ba0
1674699625.0191758 node1 cee0c3b34fb3923d985b0b4689229e47f159f26bdce0c88d280a5f4fa982e3b4
1674699625.2524776 node1 7989fefc4cb3e92cc10e6c11a3bb5eba934b673ad35d76f7f1acc791be7caf89
1674699625.419763 node2 b4a5e9991d405356d77e931803e1cbcf1cb972b39eb178784778bb19d80242c5
1674699625.667558 node2 350186bc0781bd31cf0703affe116f6fb39a4d7c0b749e6e64758910403fa65e
1674699625.8788025 node2 1b746017fac51814c87989ed14e37f962295fa63d8cd9ea1bf68b2bf9fbe25a7
1674699626.1176548 node1 e916e290ac585614581d73fd0cdf14b82421c848dcd79cf396fa6f3cf235a07a
1674699626.3877332 node3 a1c9ec06d9ed33c10ea55bcd31ab369f566a98c1b2541a1191c48117d583cc3b
1674699626.6732345 node1 d02c163652fa3f6e2f031173a9b8000a76be2b5b2ec3795f2623684a93d1ea1a
1674699626.677241 node1 64f0a6dce0bab845119d21e168c03cd2e56d2886a154212c1408e3bf640f79b2
1674699626.7878766 node3 dc625c0e7a62fdc335fe0b6854f2580e9c0f1c8e394c3bf270ab00336e89cd9b
1674699626.8258467 node3 a01c3337a763caca4066c9603dd193810957887eadefde472c3f3ec4df268cb5
1674699626.9447966 node3 c3dfd36a686f839a4855d7f04fbd6777a2dfb5c622b91c77a0d188ce49d1b13b
1674699626.947718 node1 91f82c86276f56353820e840a54bbe478bb929fe7cbea51737c0481f09c5e43e
1674699627.2512405 node3 2f92118363f51423c1c253445b7a8b3e90d104cfd1fcdbd29991de862656d4da
1674699627.418352 node2 eb3fa40dfd9f864fcb64d211ffd56d67856071dc80105b166f6ddc68e2c7669a
1674699628.3560004 node2 990bc7629b7e9ffc6f4584dbab896691708f76c9efdf3c81d9c5807864f50752
1674699628.7563794 node1 00a04fb48fe28b1041f2dbcb6bbd3d220a4096cc2ff332b8c8c0412914a373c4
1674699628.786574 node2 1823209cdc50506332974b9bb5f63d4716f23c0cb2072b7cfac3a6dfc62c4d62
1674699628.8244817 node3 76a60b54d4671d2bce97817aba94fc601ddeedb45318e9f9afdbd0fd6042b3c5
1674699628.8324893 node1 0f4070e9e8f98980740d947e4212fbe57abc16d2cf6eb46ab552772330cda01b
1674699628.9911711 node1 88437307ed55f9712b76ac0552a964430801830c816d27efd83510eee4c28ebb
1674699629.103012 node3 00706ab470dad2a44fac60f6ee3a1547363bb5ae07ea48684d4dcb8690b7eae8
1674699629.3885653 node2 c29cf31a914ef8b904ffa507fe96f69d4c9506e9e76b40243a529fc63c9cfdc5
1674699629.5090063 node2 35e30e490340254eaafb19fb072704b248b374083ed4d3a92f40430e4b1cb8a0
1674699629.8951342 node3 ab91a92d5d0dc2e104d89b115b3dd9c11543e825e0960bc70fa9586404cba46c
1674699630.1185114 node2 9e2d265f313cdd691fcdcbead5de59a7293afa92e424c87ff330ebd42f1cc772
1674699630.2757094 node1 7ef4ebbab6e36e531a9de6a7a051ef9acc7af942b428208cf3befc1ff0820d14
1674699630.5310156 node3 12c440e7dbaf1ed452452ae726f3addc31ce6a9ec4a37cd8790590c5751f7e7e
1674699631.1943526 node3 4a6dadc0b0df1f84b1e1623016fe4421512a005ff5345167c4ae3e02c2d6878c
1674699631.1967335 node1 a24e82566c2af38fa7709f103f1f0e2bea43dbb2e1eb5e321ccfbf7f12d5c375
1674699631.426943 node1 24dd861755d94d645cc3ef193ed7d286ef26c5fe80c2b62ea099e7867ad908be
1674699631.5188394 node3 9fce97d48d4591f53f69a4205e6aad4aae8eaa807cc508ed18bf825392470fb4
1674699631.6482801 node1 7e9dc3b5727366559b48e078f6b419fb7997931e0bf2f78d146c1cdb07b5ad92
1674699631.8816397 node1 aeaba5429747c184eda03f56246ee75a273b74b40429b3e44597ee9e7d2dd23b
1674699632.0253313 node2 bceb512cef89aaa43194db64756838cd78f4a472205397c14faa9a5d82f90c39
1674699632.0890124 node2 e45b7d75b30ab50e9efa9b7ec6b7d455397397a2b843918a3a4a5a9ade4ecf0c
1674699632.2613838 node1 4d9a3c29b03b1ba9ebc562c15fa4ba77d27a216523c65745e2cfd6ea395220b2
1674699632.3061054 node3 f2a4a6d427caf8425a0d9867552a5673ab2c06cecc17271b403d28d0f1fe0654
1674699632.3861198 node1 7eeb66fe2754a78e12024aa62d64ba18659657c52e54c2402731bb743c0d8a24
1674699632.7096295 node3 55e23f800611e72e17e412915fdc7ee59931189bce854fbf3862bf4248f045c1
1674699632.7292478 node2 b4e51201e1a6705eb2e93499093267728526548305be0cc7ad5e6e10390ed118
1674699632.878927 node1 03286a0c43fbc366db41b9a2bc2c9f1cb819ac189e0247afb32e84275763ebcb
1674699633.2560434 node3 c1b62238180a1621fea4cd0adde5b5e70cdc456148a2608818514b1e3fe21cab
1674699633.4192698 node2 2a523ea4d22d0bfc026c5be035a4080fecddc24c9b18bce778b66936a4653763
1674699633.4943533 node3 4f244493906168653a37cc7e5b98d9f2be79e90296c34b4ff5103082cac301f3
1674699633.5235121 node1 938d1053970338767ac80157d36be58dd4c9a530a7b16962f024cb6e3d460192
1674699633.7102108 node3 8b8b6da8b7717f8c6a206277d609e11f84a904f5020ee68282f259de11291375
1674699633.7556398 node1 12b11aaf02c4db1e8bf5a380e15f1ecccb2237ceb7ea2d4910045fddf07d329f
1674699633.8626888 node2 d23d1d4c9e642fff2d429cb8f2809f5eeef7e9b8f51767a208b3d15c9ff00c7f
1674699633.9536262 node1 fb0b6edf9c3e28fc984dd752c40332cd486446011465738d69e3a97dc75a43a6
1674699634.2392156 node2 7b4f49eef5f78c1cccad301df5c2c2c6b8ab36cb45cf566250401198cef8698a
1674699634.337904 node1 b44de2325986e4e94ed472433da7ef22032e5f1d8c6e9f7fb14c3e8c24a49d7a
1674699634.7597618 node3 622565be503499a7e70f707082d16ed29d6ac32bfde25ba58443241c02a77761
1674699634.9153001 node2 8291e1ead999e6888f34f1fa33383c71d9db8978fa8cdd2439627c72d748bee5
1674699635.0982172 node3 f54418dbf2f51d7461ca35143420096f99a4c56c98029b90b1667b1ea8ff2e61
1674699635.10712 node3 352aef79ca206843eb90be550ed06646afcd72f635210fca15c3645feee2b4dd
1674699635.2440138 node2 25ca34fff2d245d9823e15cd536252b02d9a842aae463d039497a447733a5c9a
1674699635.3384275 node2 797966be05a5e57c65aa991833ba5f1bbf65a6f5fb60e6452491f46f00cb861f
1674699636.1449714 node2 9332366d60f571decdf117cf957a937c80cf20f9edcdd407ea161bddff8e6f1a
1674699636.1474788 node3 2513289ead44a60322dc1f0410c518d7ad3e98adaade6ebaffd510f0a7d152c9
1674699636.4081838 node3 eff658c4613a8ea3bb8acf7072c1d4b5b68315d9c5f50d43871632aeac9a13d9
1674699636.9265862 node3 aee2fff96f618e63dc8285085cf0e42d502bb980f5a561740bd8c4fb4c2d2aa8
1674699637.2083073 node2 ce393f80d20a6d89fe21b38363cc437d621899c0a1b981b2dfa0a9bb9519870e
1674699637.2202835 node2 4ff395e84845bb1ed19ae5e0d1cb9c34c1bb5cd6d0e43bcd8abddbb4231a55df
1674699637.3986983 node3 6dbccb5ea1aef49fd6daa0292f8d88199614dcc79e8c7cb96a65afa1c642414c
1674699637.552601 node2 2c7ba0f9ca08e964921b9f941811f3620a0a6a9d4deb55ba2c8c00bf8df36051
1674699637.567551 node3 86b128b9e94c88c48f38b15807315e5a34c4ddc816bdcd15a9b48f8695615c4b
1674699637.5766697 node1 242e98db12a49ea1b7097cb558d92997ffb0d476a1f7f1dff865a8a9045b4165
1674699637.6241617 node3 1383faaf3bac509afb79774020b9eb65b9fbac995d35cbdb0ff0f474c38b3418
1674699637.8126006 node1 a6f46c6622a431be63bc1e17548ef8b3eaa9c1d419c65dc1b77fd1d5dce62db9
1674699637.8151324 node3 0de949a8005b97ab81011e3919cb38987636bfed144988dde9214950a614d71a
1674699637.8291986 node2 7fdde01dfa004937cf9b2dfb46effd1b1e739aa8d971ffabdc98f2ed3013cc83
1674699638.3901029 node3 a365426dab2709549efcd1a90b8c43284adab994628ed56380b734ea1c8afa98
1674699638.429418 node1 8aa81e201f362f2c3c65456c734b5d1c24f06ad5fceb1ceaab370bea27bd3446
1674699638.5821648 node3 64a5898018ea922e9fd8859ea004eb257e9a8036471dcd43673d6b46b8ca28b4
1674699638.6514418 node3 f94e3323df84e6c63e07ab78ff620efe08d4205c36c29927b58417df5e8de49c
1674699638.9643812 node3 27c6db4a99756f12e55385dd0206e8c9d821bffbb7d6fffa5aa52d017670ec6c
1674699639.1155214 node3 e3b190ed448729e568465f6c9a8a1f9672dbee1c9b328cf2ddabaf3f917f3c36
1674699639.4126437 node1 67c682025c60cae125d7f4c78f5c62e9e913dd8f766ebe1a4cc33590d3bdc876
1674699639.491093 node2 8432375f93e83b2617b3d5e21f5924da6c33b7b00cb7a2389b833afbbecbb83c
1674699639.5316803 node3 144824f6e3f321c12e5ace31767fd6d88af9f3356b57578a4127ee26ce61ece4
1674699639.7436965 node3 89232dbfc1bb9cb8eb5ca7f3e275904955a5414a7b4794bb8a5bf6e22d4295f9
1674699639.813475 node1 2f1f66d696dc13566a83c5dc522aeaf9d9918b8c64bd92fdf23e4688b965b867
1674699640.0424614 node2 c66388cdd25cf4bcffa85bf7eae6cb93901785d247bddf72e707ee3fcf0c6679
1674699640.3346448 node1 600f968c4e0aeeab56655e66cbca17e0a967af590c791e494458d51ef27dc66d
1674699640.5454924 node1 a09e92e2b2f92bd6618300e434dafe0ce612f83d9a8d7c0b30e0ca744921b9c5
1674699640.7957678 node2 6900a5e400ff2e8af79cbdbd5638ca47a57560692588acb1aa0eb723db53f431
1674699640.7966743 node3 cb62b3bcff540205f51d56f2a910836c6094b64219d6e48562c1ba70fb2fe28b
1674699641.0894668 node3 5be8bff6c2229f2e01b519a4060169582f2ee48f67060075f85fe636172119e1
1674699641.104532 node1 f827ce870b6e6a5856b8de0787f9fc09f8f708e23fc637d4eaaeec9c5b77ce55
1674699641.4222298 node2 83f5cbf2e468a99aaeec47b2722ad27ce431835094c1d3ffbf4596fdf4e3ca41
1674699641.5723538 node1 7f0b0fe7ddd2556f792795fa3b457aa0c198590cb5e8a9cc0e1ce93744a87ccc
1674699641.668344 node3 ea7b081022094fa5fe1217a266d3707c9ff445d6998e8b39aa91249b9f563458
1674699641.7714765 node1 2553856553665cfc529153562d76fc55982ba09e8cae7ad4ed471605d6483521
1674699641.8822618 node1 accfa8f1663ffdcf6263dd2afcbdf02e838386d90fba59bf4c2371f975325605
1674699641.9041424 node2 c4a64a5cae6d35ef70e0b917b105cadb5319fdcf5385921b30a6a1362830149d
1674699641.9135435 node3 34120dfaf0d65710511d0ba0cd189fbd9cdcfc26c556c3cb25d36b50239e3c2c
1674699641.9645624 node1 330cd5654b8f4efca92e3083ae7d4e7021f80b17f8debbf0202ba10b8021fc73
1674699642.1404276 node2 9c38eb1176f0407bd0c83b962ff93cf9473e7b768bf98d595c5cf67fc8026a73
1674699642.2692597 node1 c4a6c93381bc9a536a6b0f9bd2ffac8c66bab3a0dd4616c65ad2b0acf14e26af
1674699642.386793 node3 788e1e7c8ada5dfcd5fc60c8ad59711824fc21b7d69159acae9decf98ada480c
1674699642.395321 node1 4afee650a461ffdca470f966330285fa5055c774a47b45a7f1bc6e9d4751caf7
1674699642.463826 node3 6b78cb6f65c897d3d2b7590c591c94dc8f8622de79057c370096239855ae6dd6
1674699642.5529583 node3 3a0bb85425cab322c4524528b75b44c0c46410e288bc60a49a3078030e4cbbf6
1674699642.6869414 node3 008c76ce47088a5de311d93044e0c63c502064d0046cee0f2f538864569a7e34
1674699643.3667672 node2 4bc10c90264e15353b229c91dd953726de8a95af1563e7bb46b6cb8674f8216b
1674699643.4858882 node1 dafcc0bd7c129c60d5112520518d2b39ad3b5961c632e1f5b3b72596d6522263
1674699643.864817 node3 234e8e95f0bb206dc7726d21f37c68d6860ce71dedeaaebb5f4a2d8f9569c387
1674699643.9005158 node1 3c8b9e34dcabdcb1af73aad5a45062f2a6703a3bd59cca1c8d243f8dbaeea953
1674699643.9808252 node1 8b11404353df9e929034ed09865e3c6f9983efb75b4228c8da721fb05f84baed
1674699644.0349784 node1 1c15e83db1dee8e00e1b54955260ab9487832c45a7668e057ca823c385ba3c5a
1674699644.1181066 node3 3a0a8eadbfc9e3c42be8b534976d247622c3a8e6e6ad57d6928978f333a240ca
1674699644.2492812 node3 92809c019ed7d7038dd056fc20eacb26954e6ee9545ffd2bcf4bd04a01a1344e
1674699644.301266 node2 cec390342b237627567ecc49f8a4c93f77dd93ae8e18e14d1767d2ae53ebb7f7
1674699644.5677626 node3 55f16ac0ecfe3ce36787f11ede682b2e1f491e30d1d03b7f3b3586528e2a662c
1674699644.7159011 node1 6af88524576219cb538966516b3c05591caec251d0083559fb34efcf92ffc620
1674699644.7199996 node1 41a6b08cb2e6f96910e65a25a8645bd88ed03fd53ef20646822d68b1dac74521
1674699644.9429474 node1 35d19dc488ebcf612f17ac3f9e450e40bb640796fc58db0903600f91a5621bdd
1674699645.0784533 node1 ce3b6f75542c0238201e3c20c9a97c92e0e9e95aefc7eac56492b30aec869491
1674699645.1857064 node1 e349d9193e94a7a5fb93067fd553b5c270b953927e50b44d189b776a96761733
1674699645.4151483 node1 1056cfd989ec2b47e32e626c7453ee11a5fe64726af80319ff48e7b62b3929b5
1674699645.741907 node2 c03429859e3a4cc9e1a9c406bba3ddc54e9c1427f0df10aadcc7fc6c47a47c96
1674699645.8808012 node3 a64f00c3f6473f4ed91de406af2a0969ec8f50e8b2b1b1c646687460dd942a8e
1674699646.59253 node1 1f2cf878a054d4538a6a34133c63125c0d2f76cf50d1cbd57e0eafe1a5e47e88
1674699647.0442915 node1 c264981cf2f823dc1300281c4fa1f0a701475f784874677f154abefbbdd08d77
1674699647.2412438 node2 603972d5d65d7d330b0af76c159686d8fbf0c3a9af0b633ca29cf8c6534f4fdc
1674699647.362859 node1 fe0019920e4737791c01a67afeea0544cc34036c9fd94d24a5d72529b21271c2
1674699647.6324444 node1 015e3e6a00accc3a1809fffe472ab35e4b0765dcb36135e86a26a297f6446f4a
1674699647.6419363 node3 5d3d0725c9a1595e82b8d69fafa79f3949d9f1dbd2e8211f95944949e2943962
1674699647.9089267 node1 592bb248e5d217a87c59c2277ef654929cb3970cbd6817bfe1ec942614497ebc
1674699648.3104904 node2 953120a914634d0b179c7d54e4d22db41062e2a0ad2e1a860d81d76fd3723525
1674699648.5027113 node2 92ff83714e768ee4b7a00d5ecd3625d6e88262b280a473f4a8801ea36382b8ad
1674699649.4594107 node3 9c0c756ed376a9318e22dfa2674f1180b7fe3ea175094a2d9fe1a331c4d5094a
1674699649.6947355 node2 f98bd2853a479ffb403a98ef5089f3b674a343cc86bfdf9dc0ab6e7871ca64ac
1674699649.8772814 node1 b81b614aaac8a0ead74eecbbd2f14a44837ab8c2c3c21b43aa63789e66b90da6
1674699649.907183 node3 0e7e704279a1efadbb450b8f1ffb0d6aad638e32127c909c3ef1dc209bed496c
1674699649.9367838 node3 626bdf916149a92171e4f65483b0ead4b6370c8f68e88ccffe75e953c71f04cf
1674699650.0467973 node2 9ac8f8846a56ba5c1dcf80e36701bc695af071ea5642a75e6f4b9ac9ebc2165b
1674699650.1313934 node2 1bc3b790f55f44c992610ae2992e4e0021ca4cd681d218cd2a014f993b99f9a4
1674699650.2839186 node1 316f8143cffa10b7d9e26ed4df3fef7475c852aa83567980167e28795804aff1
1674699650.5077271 node1 d538b11cf88f759ec6fc29f804ad22581646da45154287841667ab15fedd62d5
1674699650.630409 node1 bb6d8054018c6f8f35dd75960f3543f70949e246f89df51e7fafe650349b6413
1674699650.9507072 node3 3aa9744b0912a6408a7822ac7c4784ae0b807a0350fced66dabf015af182b1ab
1674699650.984806 node2 59e38e8a2a33a396f173105645e7a7afd1b8a0250d52dad8d4fde4e3cdd01bcc
1674699650.9947226 node1 023b34d2f20d8afc5328cbf881e3dde399020d3eb8daa243ed990f641d80be1f
1674699651.369085 node2 b833c06ace10340a8a620c4650ba43a7cb27d7df80a2d2df2de60655bfcd6fda
1674699652.0306275 node3 7e5764a48a4fba1bd7848ec60b6a829fab5f37f3791618e375138f223735db32
1674699652.0507805 node2 fbf95649e5b0cedfd8b9a6eb140b9a18d00dfba7f5ad8f6d8c47336e0e807d5d
1674699652.3886356 node2 33146e7073f12e7c0e5f1ca3afc400a1c6fa68875a592aca072a559fdcd3bca3
1674699652.4272647 node3 dbb5ab73df656b5865fb1cacf0039415b2803cce9ad0c0270320dabf083e4269
1674699652.4829645 node3 7b64aabd09900095d1ebf3437c269cfda16083d1d7219e6d1f1f7f62522b8298
1674699652.693633 node1 d7ea5d3eb3e3735a8a639790b8113e1a308c850115334bda15e0a1e59004655f
1674699652.7632372 node3 1550b792a370f8a930393e832586bbf54dd6caf34b8cd08554ae88d8f8e3d712
1674699652.9635682 node1 7e210cc3574fffe0367343b626bc804302d4b11360d7100bdae8c74e568eff30
1674699653.0914254 node2 60391e59d36e3aa62189e935d90d952a264b52f778de0a9253c79e4eb338bd78
1674699653.3755054 node1 905b83127420a40611c625b5aa372c891e4c9249027bfb6b5d96870be28bbf26
1674699653.765125 node3 7bdfec68428f963c321327cc4d4858a1b52040f0d7203b69f0ecd248d335d6dd
1674699653.84255 node2 6d80e5d9f22f2fcaf13fbb949196a49a30dd044a38d67020e3ec7e23fdfd621d
1674699653.886994 node2 557dbb39c81e32a0292b959af15783bebc90f33538b347d40386ae9e6af6a38f
1674699653.9572868 node1 6977ab0c471e219342933ad932ea1aec870c202c46530f5f45ef2ac626d4c16a
1674699654.2346394 node1 e5a6ccb8ffc69974b609e55522c2612eb285a26f856ee36fcdd3777a5c56a634
1674699654.3739657 node2 a5fb284a39f039feecd89fca5cd2b67c72cbf7dd46b55cf3389281027d77a838
1674699655.0064385 node3 f2a9e4af3580cb92e3a3887da20f5428d8aa7a3fa132121547f28e1653f721e6
1674699655.1540487 node3 80fb233d3b034417883d1f917bd016e5d2540947216792fa561d32211914311f
1674699655.4600263 node2 ee938c43dbdd588cf66fa235fe94749f012e47ba9969b1ac73792d6961e98b93
1674699655.6161196 node1 12f16ef321464ef4d435ff6653791ab8c1894ac6e08e2f5f3fc771fdd7885d95
1674699655.7047088 node3 bbfa663ab3bdcc62232c8a64c5608e4411fbf405540003234e424fb5a7735b8b
1674699655.7720916 node2 081ce6cd84783d33b8bc2125c6c216650bc97f22fa58ff3fc7c2a05623fb6087
1674699655.8956435 node1 d6a9be68908b71c7f11e65eacae5ba20a4762e236d4981f4b0847f61f398081d
1674699655.9108353 node1 d6cdfe3a83b34b5dd0a1cfdd791c749e9ee3a08f8f5d2f86ef7c24d6bfc5b874
1674699655.9548101 node2 7bcc846e422eb7de288f4d94b9bb15b1413b0d73a2661681d010b2321c8e6d37
1674699656.1333718 node2 8caf3c97bbd43c083e5fe61999bf3978c5879161d7f26c0a53c24ff26a3aa271
1674699656.2015517 node3 c3e3516412e784060283bcda8d809ffc644b1bfce822cba529a9a8c17e0d5600
1674699656.754372 node1 e79f4267edff53d497e0071e41b7fd6903cb53877d5bce3beaafbc123c6e37ca
1674699656.9033399 node3 6c6ac4de87f91320029b2bcecd7463b97e25d2882bedb62fc972642457b60c52
1674699657.1947172 node1 b4e98056eb040d415a414fb2414c0562d101d999d034ef0cff9e59af88f94a02
1674699657.341595 node3 3c8cb2207accde8357f024b2b2dc0c4ac40877eff6da06a6b9915058c869c5e0
1674699658.1455457 node1 8476f77dc549eb7e6ea82b6fd29fac4c54ee38c4c7779f693a691513618c1c2a
1674699658.1925602 node1 c8c05751218916d9baa9b4a394b918aeae3269f8701d55d47ccc0f758874855c
1674699658.506684 node1 e703c62802b4380d9519a1cf8ec3dae4e69203db8f41d55570503cf8a138d075
1674699658.5324855 node1 5cc7181629dd73b1af39ac877a2fb303f8049d6708a78c71566bc1c7c9ba5f01
1674699658.7715936 node2 5218bd5a44a69e8d4379ca9db965ed5a5be29dc9fadd5cebaa7b42cfa948f524
1674699658.8809655 node2 8aff06c6c3d8ccb9bf78c4c0c26186c92222057234545ac6bbbd46b8e63e7cf6
1674699659.7366374 node2 70fba9eae3a64de2b8687dd8ce75bc486ab7fa46cbef030c2e0ddfa73b88b259
1674699659.8996685 node1 5e1ae0139a05e08c7784930a178de0612d96c88167d2d8820c11ac01cf108d1c
1674699659.915422 node1 5b15f01e70dd5101f6be9c581a30b5e1147599ab29d1c1f8d2e896c3353fa5c1
1674699659.97884 node3 ab99a0a06475ffdc7c91816cc78dcdbccbf693ca470a78e9a10e1690f338d13f
1674699660.0267391 node2 fefd178882a40ca6fe1cbedd474fd5199df6bc46a12c8644718156716d1e7db1
1674699660.4228497 node1 90b6edaa733342685e443e2142b8a108aaead453f237707d26b9d6f8e1f99b1c
1674699660.482084 node2 1bca614314b81960f22bbe8edcfdcd10b8e0fdcbc7def7f5f5c31f5914d45a9a
1674699660.4863484 node3 7fe486d599ddeddad8f111f59afe26e397d2a8ad0ede9ea547636ada93601287
1674699660.615236 node3 d4162aca30b4214b58a70160227fbe17ab8d412d573cc9cfcc35868ad313ae79
1674699660.6617494 node3 04782b4c1865b2e18de7baefd1a979303cc1f85653004b1b5dbab872a0b4076f
1674699660.6633186 node3 ed4afb3d555954973307f4cba4077722a4e086ddc670b53e4cdf03e845258fa8
1674699661.138697 node3 48e541a2da76ecad1297fb23230376561a42ca8c7c8b2fb3a709cfe478a79a54
1674699661.3327982 node1 3cf107dd2cab390f1aabf76c74fd202f3c1604e091e9b3aa35df06fc7e99da8c
1674699661.3571594 node1 061f430fad8f0076b8f8aafe9feaa494a8031573b29507c606e668254068ce3a
1674699661.6170034 node1 49a9404b24c9bdf519cf51ec39a9f2ec048aed9c824e8f8052984dc3969a30e7
1674699661.6518793 node3 07c6d4c0a09ac1e27d02ac83a467dbdcd0eb7aee89463f13c3ef56f199561a7b
1674699662.0288768 node2 90b966f6545425a7b139ef5f81bf5349d9b832628b17e84fb0c0755c59f77689
1674699662.1957214 node2 02460a5ddde948423c7c7ddda7188754cb5c3f96cd592e8e445eddddaa9c23f1
1674699662.2127168 node3 dd011d10b52ec66fc7c23f4de27592d5ec76a920d408ed412be353b8e6a9c878
1674699662.4150531 node3 f181086c2e6f3f7a1495c87510ae0f0717fee4f625ddce5be3fde2cbb35496d7
1674699662.5033653 node1 808f23b0560f7711290234ea2a1c522d1ebe55679955ce5f9184831f44e2cfbf
1674699662.8751948 node1 dace1d73cbdc3bb55050feef56528db4c7ab156e133f9e0e6e00de6b3aa6e80e
1674699662.927705 node2 47d2b58f7c2a82a4eece7444bcbbb8962c3e9a60848236c32eb4d4c808ce0a08
1674699663.2563777 node1 c5687b74ac61d6384d2bd817cbe440d80c0f7d48ea8e427b194dc99c79d55a73
1674699663.2583065 node1 5220ce4e08409b593916763e72e61e6885131d7d108f6237535a48632c479f0d
1674699663.4982462 node1 37fd53fa0d56e247c002e6ef6c854795cbdd5e899e81215245f105094337534f
1674699663.5022883 node3 be217489592c97853b1d9bce2572185d5fa89b21ce9dff7d5917d797bfece342
1674699663.6485581 node1 dc115eb9a4a8ad2be9a3ec7a7c8ac56588177c9913498929784d48d86c7dd57b
1674699663.767424 node3 cc419a8efcb5504d3c66d904c1f87712ebfa84dcced4223bd6ba4e61839d23ab
1674699663.8929992 node3 1641f49b16f241ab8408f341238347aa5e293f0201b774676ca30b1b9adecc8f
1674699664.1047301 node1 24a22698e0d7f7efb8dd61d497ebb1805d94115b9b77455d288854bc32012f68
1674699664.2891033 node3 b390bab7a05c8a2675d478d48129ebbc60ec0bc4f54f77308e0274ec1733db41
1674699664.354256 node1 d9753a67f93897b7566c60d57e9c9fcc33a62a56caf6d9dfe8832630c03d071d
1674699664.482042 node3 c1ded43dbbbdede3a8136496be80fbf1c6a4930958b1f2957c4de7868218cb42
1674699664.7877696 node1 fc36832ebb34fd302dbdb18d099cf10a5da1568349b4847263ae6af75c6590ec
